{
    "KPlugin": {
        "License": "GPL-2.0+",
        "Name": "Colorblindness Correction",
        "Name[ar]": "تصحيح عمى الألوان",
        "Name[be]": "Карэкцыя дальтанізму",
        "Name[bg]": "Корекция на цветна слепота",
        "Name[ca@valencia]": "Correcció del daltonisme",
        "Name[ca]": "Correcció del daltonisme",
        "Name[cs]": "Oprava barvosleposti",
        "Name[en_GB]": "Colourblindness Correction",
        "Name[eo]": "Korekto de Kolorblindeco",
        "Name[es]": "Corrección para daltonismo",
        "Name[eu]": "Kolore itsutasunerako zuzenketa",
        "Name[fi]": "Värisokeuskorjaus",
        "Name[fr]": "Correction du daltonisme",
        "Name[gl]": "Corrección de daltonismo",
        "Name[he]": "תיקון עיוורון צבעים",
        "Name[hu]": "Színtévesztés-korrekció",
        "Name[ia]": "Correction de cecitate de color",
        "Name[is]": "Leiðrétting fyrir litblindu",
        "Name[it]": "Correzione per il daltonismo",
        "Name[ja]": "色覚異常補正",
        "Name[ka]": "ფერების სიბრმავის შესწორება",
        "Name[ko]": "색각 이상 보정",
        "Name[lt]": "Spalvinio aklumo korekcija",
        "Name[lv]": "Krāsu akluma korekcija",
        "Name[nl]": "Correctie voor kleurenblindheid",
        "Name[pl]": "Poprawki dla ślepych na barwy",
        "Name[ru]": "Корректировка при цветовой слепоте",
        "Name[sk]": "Korekcia farbosleposti",
        "Name[sl]": "Popravek za barvno slepoto",
        "Name[ta]": "நிறக்குருடு திருத்தம்",
        "Name[tr]": "Renk Körlüğü Düzeltmesi",
        "Name[uk]": "Виправлення для дальтонізму",
        "Name[x-test]": "xxColorblindness Correctionxx",
        "Name[zh_CN]": "色盲校正",
        "Name[zh_TW]": "色盲修正"
    }
}
