{
    "KPlugin": {
        "Category": "Accessibility",
        "Description": "Enhances color perception for color blindness",
        "Description[ar]": "تحسن استقبال الألوان للأشخاص ذوي عمى الألوان",
        "Description[be]": "Паляпшэнне ўспрымання колераў пры праблемах з успрыманнем колераў",
        "Description[bg]": "Подобряване на цветното възприемане при цветна слепота",
        "Description[ca@valencia]": "Millora la percepció del color dels daltònics",
        "Description[ca]": "Millora la percepció del color dels daltònics",
        "Description[en_GB]": "Enhances colour perception for colour blindness",
        "Description[eo]": "Plibonigas kolorpercepton por kolora blindeco",
        "Description[es]": "Mejora la percepción del color para el daltonismo",
        "Description[eu]": "Kolore itsutasunerako koloreen zorroztasuna areagotzen du",
        "Description[fi]": "Tehostaa värien erottuvuutta värisokeille",
        "Description[fr]": "Améliore la perception des couleurs pour le daltonisme",
        "Description[gl]": "Mellora a percepción de cor para xente con daltonismo.",
        "Description[he]": "משפר את תפיסת הצבע לעיוורון צבעים",
        "Description[hu]": "Színérzékelés fokozása színtévesztőknek",
        "Description[ia]": "Intensifica perceprion de color per cecitate de color",
        "Description[is]": "Bætir litaskynjun fyrir litblinda",
        "Description[it]": "Migliora la percezione del colore per il daltonismo",
        "Description[ja]": "色彩を補正して色覚異常を持つユーザの使用体験を改善します",
        "Description[ka]": "ფერების გაფართოება ფერებით ბრმა პიროვნებებისთვის",
        "Description[ko]": "색각 이상 사용자를 위한 색 분별력 향상",
        "Description[lt]": "Pagerina spalvinį aklumą turinčių žmonių spalvų nuovoką",
        "Description[lv]": "Uzlabo krāsu uztveri krāsu akluma gadījumā",
        "Description[nl]": "Perceptie van kleur verbeteren voor kleurenblindheid",
        "Description[pl]": "Polepsza rozpoznawanie barw dla ślepych na barwy",
        "Description[ru]": "Улучшение восприятия цветов при цветовой слепоте",
        "Description[sk]": "Zlepšuje vnímanie farieb pri farbosleposti",
        "Description[sl]": "Izboljša dojemanje barv za barvno slepe",
        "Description[ta]": "நிறக்குருடு உடையவர்களுக்கு உதவும் வகையில் நிறங்களை மாற்றும்",
        "Description[tr]": "Renk körlüğü aralığında renk algısını iyileştirir",
        "Description[uk]": "Удосконалює сприйняття кольорів для випадків дальтонізму",
        "Description[x-test]": "xxEnhances color perception for color blindnessxx",
        "Description[zh_CN]": "增强色盲视觉的颜色感知",
        "Description[zh_TW]": "為色盲現象改善顏色辨識",
        "EnabledByDefault": false,
        "License": "GPL-2.0+",
        "Name": "Colorblindness Correction",
        "Name[ar]": "تصحيح عمى الألوان",
        "Name[be]": "Карэкцыя дальтанізму",
        "Name[bg]": "Корекция на цветна слепота",
        "Name[ca@valencia]": "Correcció del daltonisme",
        "Name[ca]": "Correcció del daltonisme",
        "Name[cs]": "Oprava barvosleposti",
        "Name[en_GB]": "Colourblindness Correction",
        "Name[eo]": "Korekto de Kolorblindeco",
        "Name[es]": "Corrección para daltonismo",
        "Name[eu]": "Kolore itsutasunerako zuzenketa",
        "Name[fi]": "Värisokeuskorjaus",
        "Name[fr]": "Correction du daltonisme",
        "Name[gl]": "Corrección de daltonismo",
        "Name[he]": "תיקון עיוורון צבעים",
        "Name[hu]": "Színtévesztés-korrekció",
        "Name[ia]": "Correction de cecitate de color",
        "Name[is]": "Leiðrétting fyrir litblindu",
        "Name[it]": "Correzione per il daltonismo",
        "Name[ja]": "色覚異常補正",
        "Name[ka]": "ფერების სიბრმავის შესწორება",
        "Name[ko]": "색각 이상 보정",
        "Name[lt]": "Spalvinio aklumo korekcija",
        "Name[lv]": "Krāsu akluma korekcija",
        "Name[nl]": "Correctie voor kleurenblindheid",
        "Name[pl]": "Poprawki dla ślepych na barwy",
        "Name[ru]": "Корректировка при цветовой слепоте",
        "Name[sk]": "Korekcia farbosleposti",
        "Name[sl]": "Popravek za barvno slepoto",
        "Name[ta]": "நிறக்குருடு திருத்தம்",
        "Name[tr]": "Renk Körlüğü Düzeltmesi",
        "Name[uk]": "Виправлення для дальтонізму",
        "Name[x-test]": "xxColorblindness Correctionxx",
        "Name[zh_CN]": "色盲校正",
        "Name[zh_TW]": "色盲修正"
    },
    "X-KDE-ConfigModule": "kwin_colorblindnesscorrection_config"
}
